eRNAs and Repetitive elements
…
#fill NAs with 0  

repEl_both$Proppertype= repEl_both$Proppertype %>% replace_na(0)
repEl_both$NperType= repEl_both$NperType %>% replace_na(0)
repEl_both$Proppertype_shuf= repEl_both$Proppertype_shuf %>% replace_na(0)
repEl_both$NperType_shuf= repEl_both$NperType_shuf %>% replace_na(0)

Hyper geometric:

repEl_both_sig= repEl_both %>% mutate(Peak=sum(repEl_both$NperType), Peak_Shuf=sum(repEl_both$NperType_shuf), Chosen=NperType+NperType_shuf) %>% mutate(hyper=phyper(NperType, Peak, Peak_Shuf, Chosen, lower.tail = F)) %>% mutate(sig=ifelse(hyper<.05, "yes", "no")) %>% filter(sig=="yes") %>% arrange(desc(Proppertype))

repEl_both_sig

# A tibble: 227 x 10
   Type  NperType Proppertype NperType_shuf Proppertype_shuf  Peak
   <chr>    <dbl>       <dbl>         <dbl>            <dbl> <dbl>
 1 AT_r…      527      0.0552           278          0.0191   9542
 2 AluY       396      0.0415           345          0.0237   9542
 3 AluJb      348      0.0365           323          0.0222   9542
 4 AluJr      245      0.0257           186          0.0128   9542
 5 AluJo      188      0.0197           185          0.0127   9542
 6 MIRc       148      0.0155           165          0.0113   9542
 7 L1PA4      132      0.0138           154          0.0106   9542
 8 GA-r…      117      0.0123            24          0.00165  9542
 9 L1PA5      117      0.0123           130          0.00892  9542
10 L1PA3      116      0.0122           138          0.00946  9542
# ... with 217 more rows, and 4 more variables: Peak_Shuf <dbl>,
#   Chosen <dbl>, hyper <dbl>, sig <chr>
…
